%YAML 1.1
%TAG !u! tag:unity3d.com,2011:
--- !u!114 &11400000
MonoBehaviour:
  m_ObjectHideFlags: 0
  m_CorrespondingSourceObject: {fileID: 0}
  m_PrefabInstance: {fileID: 0}
  m_PrefabAsset: {fileID: 0}
  m_GameObject: {fileID: 0}
  m_Enabled: 1
  m_EditorHideFlags: 0
  m_Script: {fileID: 11500000, guid: 4736dd7ff4d45a4419eb32699856740a, type: 3}
  m_Name: UnitConfig
  m_EditorClassIdentifier: 
  maxValue: 100
  minValue: 0
  health: 100
  armor: 0
  vampValue: 0
  attack: 15
